[
    {
        "r_type": "_R0",
        "r_types": [
            "Z",
            "Z",
            "Z",
            "Z",
            "Z",
            "Z",
            "Z",
            "Z",
            "Z",
            "Z",
            "Z",
            "Z",
            "Z",
            "Z",
            "Z",
            "Z",
            "Z",
            "Z",
            "Z",
            "Z",
            "Z",
            "Z",
            "Z",
            "Z",
            "Z",
            "Z",
            "Z",
            "Z",
            "Z",
            "Z",
            "Z",
            "Z",
            "Z",
            "Z",
            "Z",
            "Z",
            "Z",
            "Z",
            "Z",
            "Z",
            "Z",
            "Z",
            "Z",
            "Z",
            "Z"
        ],
        "r_positions": [
            [
                50.0,
                -15.39600701424925,
                0.0
            ],
            [
                40.0,
                -15.39600701424925,
                0.0
            ],
            [
                45.0,
                -6.735752976404868,
                0.0
            ],
            [
                30.0,
                -15.39600701424925,
                0.0
            ],
            [
                35.0,
                -6.735752976404868,
                0.0
            ],
            [
                40.0,
                1.9245010614395142,
                0.0
            ],
            [
                35.0,
                10.584755099283896,
                0.0
            ],
            [
                30.0,
                19.245009137128278,
                0.0
            ],
            [
                20.0,
                -15.39600701424925,
                0.0
            ],
            [
                25.0,
                -6.735752976404868,
                0.0
            ],
            [
                30.0,
                1.9245010614395142,
                0.0
            ],
            [
                25.0,
                10.584755099283896,
                0.0
            ],
            [
                20.0,
                19.245009137128278,
                0.0
            ],
            [
                10.0,
                -15.39600701424925,
                0.0
            ],
            [
                15.0,
                -6.735752976404868,
                0.0
            ],
            [
                20.0,
                1.9245010614395142,
                0.0
            ],
            [
                15.0,
                10.584755099283896,
                0.0
            ],
            [
                10.0,
                19.245009137128278,
                0.0
            ],
            [
                0.0,
                -15.39600701424925,
                0.0
            ],
            [
                5.0,
                -6.735752976404868,
                0.0
            ],
            [
                10.0,
                1.9245010614395142,
                0.0
            ],
            [
                5.0,
                10.584755099283896,
                0.0
            ],
            [
                0.0,
                19.245009137128278,
                0.0
            ],
            [
                -10.0,
                -15.39600701424925,
                0.0
            ],
            [
                -5.0,
                -6.735752976404868,
                0.0
            ],
            [
                0.0,
                1.9245010614395142,
                0.0
            ],
            [
                -5.0,
                10.584755099283896,
                0.0
            ],
            [
                -10.0,
                19.245009137128278,
                0.0
            ],
            [
                -20.0,
                -15.39600701424925,
                0.0
            ],
            [
                -15.0,
                -6.735752976404868,
                0.0
            ],
            [
                -10.0,
                1.9245010614395142,
                0.0
            ],
            [
                -15.0,
                10.584755099283896,
                0.0
            ],
            [
                -20.0,
                19.245009137128278,
                0.0
            ],
            [
                -30.0,
                -15.39600701424925,
                0.0
            ],
            [
                -25.0,
                -6.735752976404868,
                0.0
            ],
            [
                -20.0,
                1.9245010614395142,
                0.0
            ],
            [
                -25.0,
                10.584755099283896,
                0.0
            ],
            [
                -30.0,
                19.245009137128278,
                0.0
            ],
            [
                -40.0,
                -15.39600701424925,
                0.0
            ],
            [
                -35.0,
                -6.735752976404868,
                0.0
            ],
            [
                -30.0,
                1.9245010614395142,
                0.0
            ],
            [
                -35.0,
                10.584755099283896,
                0.0
            ],
            [
                -50.0,
                -15.39600701424925,
                0.0
            ],
            [
                -45.0,
                -6.735752976404868,
                0.0
            ],
            [
                -40.0,
                1.9245010614395142,
                0.0
            ]
        ]
    }
]