[
    {
        "r_types": [
            "Z",
            "Z",
            "Z",
            "Z",
            "Z",
            "Z",
            "Z",
            "Z",
            "Z",
            "Z",
            "Z",
            "Z",
            "Z",
            "Z",
            "Z",
            "Z",
            "Z",
            "Z",
            "Z",
            "Z",
            "Z",
            "Z",
            "Z",
            "Z",
            "Z",
            "Z",
            "Z",
            "Z",
            "Z",
            "Z",
            "Z",
            "Z",
            "Z",
            "Z",
            "Z",
            "Z",
            "Z",
            "Z",
            "Z",
            "Z",
            "Z",
            "Z",
            "Z",
            "Z",
            "Z"
        ],
        "r_type": "_R0",
        "r_positions": [
            [
                5.0,
                -1.5396007312272495,
                0.0
            ],
            [
                4.0,
                -1.5396007312272495,
                0.0
            ],
            [
                4.5,
                -0.6735753274428085,
                0.0
            ],
            [
                3.0,
                -1.5396007312272495,
                0.0
            ],
            [
                3.5,
                -0.6735753274428085,
                0.0
            ],
            [
                4.0,
                0.19245007634162903,
                0.0
            ],
            [
                3.5,
                1.0584754801260665,
                0.0
            ],
            [
                3.0,
                1.9245008839105076,
                0.0
            ],
            [
                2.0,
                -1.5396007312272495,
                0.0
            ],
            [
                2.5,
                -0.6735753274428085,
                0.0
            ],
            [
                3.0,
                0.19245007634162903,
                0.0
            ],
            [
                2.5,
                1.0584754801260665,
                0.0
            ],
            [
                2.0,
                1.9245008839105076,
                0.0
            ],
            [
                1.0,
                -1.5396007312272495,
                0.0
            ],
            [
                1.5,
                -0.6735753274428085,
                0.0
            ],
            [
                2.0,
                0.19245007634162903,
                0.0
            ],
            [
                1.5,
                1.0584754801260665,
                0.0
            ],
            [
                1.0,
                1.9245008839105076,
                0.0
            ],
            [
                0.0,
                -1.5396007312272495,
                0.0
            ],
            [
                0.5,
                -0.6735753274428085,
                0.0
            ],
            [
                1.0,
                0.19245007634162903,
                0.0
            ],
            [
                0.5,
                1.0584754801260665,
                0.0
            ],
            [
                0.0,
                1.9245008839105076,
                0.0
            ],
            [
                -1.0,
                -1.5396007312272495,
                0.0
            ],
            [
                -0.5,
                -0.6735753274428085,
                0.0
            ],
            [
                0.0,
                0.19245007634162903,
                0.0
            ],
            [
                -0.5,
                1.0584754801260665,
                0.0
            ],
            [
                -1.0,
                1.9245008839105076,
                0.0
            ],
            [
                -2.0,
                -1.5396007312272495,
                0.0
            ],
            [
                -1.5,
                -0.6735753274428085,
                0.0
            ],
            [
                -1.0,
                0.19245007634162903,
                0.0
            ],
            [
                -1.5,
                1.0584754801260665,
                0.0
            ],
            [
                -2.0,
                1.9245008839105076,
                0.0
            ],
            [
                -3.0,
                -1.5396007312272495,
                0.0
            ],
            [
                -2.5,
                -0.6735753274428085,
                0.0
            ],
            [
                -2.0,
                0.19245007634162903,
                0.0
            ],
            [
                -2.5,
                1.0584754801260665,
                0.0
            ],
            [
                -3.0,
                1.9245008839105076,
                0.0
            ],
            [
                -4.0,
                -1.5396007312272495,
                0.0
            ],
            [
                -3.5,
                -0.6735753274428085,
                0.0
            ],
            [
                -3.0,
                0.19245007634162903,
                0.0
            ],
            [
                -3.5,
                1.0584754801260665,
                0.0
            ],
            [
                -5.0,
                -1.5396007312272495,
                0.0
            ],
            [
                -4.5,
                -0.6735753274428085,
                0.0
            ],
            [
                -4.0,
                0.19245007634162903,
                0.0
            ]
        ]
    }
]